No. Cuarto:			0
Tipo de Cuarto:			Habitacion doble
Estatus:			Disponible
Precio:				800
--------------------------------
No. Cuarto:			1
Tipo de Cuarto:			Habitacion doble
Estatus:			Disponible
Precio:				800
--------------------------------
No. Cuarto:			2
Tipo de Cuarto:			Habitacion doble
Estatus:			Disponible
Precio:				800
--------------------------------
No. Cuarto:			3
Tipo de Cuarto:			Habitacion doble
Estatus:			Disponible
Precio:				800
--------------------------------
No. Cuarto:			4
Tipo de Cuarto:			Habitacion doble
Estatus:			Disponible
Precio:				800
--------------------------------
No. Cuarto:			5
Tipo de Cuarto:			Habitacion cuadruple
Estatus:			Disponible
Precio:				1100
--------------------------------
No. Cuarto:			6
Tipo de Cuarto:			Habitacion cuadruple
Estatus:			Disponible
Precio:				1100
--------------------------------
No. Cuarto:			7
Tipo de Cuarto:			Habitacion cuadruple
Estatus:			Disponible
Precio:				1100
--------------------------------
No. Cuarto:			8
Tipo de Cuarto:			Habitacion de lujo
Estatus:			Rentado
Precio:				1500
Rentado por:			321
--------------------------------
No. Cuarto:			9
Tipo de Cuarto:			Habitacion de lujo
Estatus:			Disponible
Precio:				1500
--------------------------------
